{
  "24h": {
    "c": [
        6432.81,
        6434.57,
        6435.24,
        6433.88,
        6431.5,
        6430.17,
        6430.34,
        6429.65,
        6423.79,
        6438,
        6444.83,
        6436.71,
        6436.39,
        6440.72,
        6443.59,
        6444.16,
        6444.22,
        6445.17,
        6446.93,
        6448.35,
        6449.58,
        6449.14,
        6449.28,
        6448.32,
        6451.01,
        6448.01,
        6449.34,
        6449.7,
        6452.25,
        6454.25,
        6453.46,
        6452.47,
        6449.83,
        6450.61,
        6449.75,
        6447.53,
        6447,
        6447.01,
        6446.12,
        6445.18,
        6444.57,
        6443.67,
        6446.54,
        6445.41,
        6448.35,
        6449.68,
        6444.12,
        6444.07,
        6444.02,
        6443.8,
        6445.97,
        6447.89,
        6446.9,
        6448.41,
        6448.07,
        6445.74,
        6448.01,
        6448.22,
        6442.4,
        6452.06,
        6452.38,
        6452.75,
        6455.89,
        6454.03,
        6452.13,
        6454.36,
        6454.25,
        6452.25,
        6453.66,
        6455.45,
        6454.49,
        6454.65,
        6455,
        6453.18,
        6452.25,
        6451.77,
        6448.95,
        6452.06,
        6453.8,
        6453.82,
        6454.13,
        6458.64,
        6464.28,
        6465.52,
        6468.19,
        6469.56,
        6470.78,
        6472.05,
        6475.56,
        6467.34,
        6465.91,
        6463.73,
        6463.02,
        6463.16,
        6462.31,
        6460.83,
        6464.17,
        6472.88,
        6470.22,
        6463.41,
        6461.38,
        6458.87,
        6458.86,
        6459.07,
        6460.7,
        6454.23,
        6452.06,
        6447.91,
        6447.31,
        6448.36,
        6448.39,
        6448.88,
        6447.9,
        6450.44,
        6453.78,
        6450.59,
        6451.83,
        6454.72,
        6454.12,
        6454.72,
        6455.84,
        6457.17,
        6451.45,
        6454.9,
        6458.5,
        6461.47,
        6457.9,
        6455.62,
        6452.1,
        6454.03,
        6460.72,
        6462.09,
        6462.44,
        6459.78,
        6457.55,
        6465.14,
        6466.68,
        6465.38,
        6466.58,
        6460.1,
        6465.66,
        6464.27,
        6467.58,
        6466.47,
        6468.34,
        6481.24,
        6482.82,
        6477.15,
        6472.61,
        6465.38,
        6469.62,
        6472.1,
        6482.54,
        6476.98,
        6494.11,
        6480.7,
        6477.51,
        6461.98,
        6457.54,
        6448.86,
        6444.98,
        6454.77,
        6455.06,
        6451.16,
        6443.51,
        6444.15,
        6444.75,
        6440.21,
        6440.1,
        6442.53,
        6447.8,
        6448.13,
        6448.98,
        6448.31,
        6449.27,
        6447.71,
        6445.12,
        6436.42,
        6443.1,
        6462.97,
        6433.3,
        6402.41,
        6400.43,
        6401.53,
        6398.14,
        6397.12,
        6394.92,
        6396.1,
        6387.17,
        6390.81,
        6389.59,
        6388.76,
        6388.96,
        6388.45,
        6386.29,
        6382.37,
        6384.45,
        6389.04,
        6394.84,
        6394.08,
        6395.55,
        6388.66,
        6388.8,
        6390.65,
        6386.51,
        6387.6,
        6390.96,
        6390.47,
        6386.86,
        6387.39,
        6389.57,
        6392.4,
        6388.48,
        6390.41,
        6389.92,
        6390.8,
        6391.26,
        6388.15,
        6380.48,
        6382.29,
        6385.86,
        6386.19,
        6388.05,
        6387.58,
        6386.78,
        6387.09,
        6389.74,
        6388.55,
        6384.12,
        6385.06,
        6379.62,
        6381.63,
        6381.54,
        6381.74,
        6382.01,
        6382.36,
        6381.87,
        6383.19,
        6383.2,
        6381.09,
        6380.75,
        6381.31,
        6379.88
    ],
    "t": [
        1541411280,
        1541410920,
        1541410560,
        1541410200,
        1541409840,
        1541409480,
        1541409120,
        1541408760,
        1541408400,
        1541408040,
        1541407680,
        1541407320,
        1541406960,
        1541406600,
        1541406240,
        1541405880,
        1541405520,
        1541405160,
        1541404800,
        1541404440,
        1541404080,
        1541403720,
        1541403360,
        1541403000,
        1541402640,
        1541402280,
        1541401920,
        1541401560,
        1541401200,
        1541400840,
        1541400480,
        1541400120,
        1541399760,
        1541399400,
        1541399040,
        1541398680,
        1541398320,
        1541397960,
        1541397600,
        1541397240,
        1541396880,
        1541396520,
        1541396160,
        1541395800,
        1541395440,
        1541395080,
        1541394720,
        1541394360,
        1541394000,
        1541393640,
        1541393280,
        1541392920,
        1541392560,
        1541392200,
        1541391840,
        1541391480,
        1541391120,
        1541390760,
        1541390400,
        1541390040,
        1541389680,
        1541389320,
        1541388960,
        1541388600,
        1541388240,
        1541387880,
        1541387520,
        1541387160,
        1541386800,
        1541386440,
        1541386080,
        1541385720,
        1541385360,
        1541385000,
        1541384640,
        1541384280,
        1541383920,
        1541383560,
        1541383200,
        1541382840,
        1541382480,
        1541382120,
        1541381760,
        1541381400,
        1541381040,
        1541380680,
        1541380320,
        1541379960,
        1541379600,
        1541379240,
        1541378880,
        1541378520,
        1541378160,
        1541377800,
        1541377440,
        1541377080,
        1541376720,
        1541376360,
        1541376000,
        1541375640,
        1541375280,
        1541374920,
        1541374560,
        1541374200,
        1541373840,
        1541373480,
        1541373120,
        1541372760,
        1541372400,
        1541372040,
        1541371680,
        1541371320,
        1541370960,
        1541370600,
        1541370240,
        1541369880,
        1541369520,
        1541369160,
        1541368800,
        1541368440,
        1541368080,
        1541367720,
        1541367360,
        1541367000,
        1541366640,
        1541366280,
        1541365920,
        1541365560,
        1541365200,
        1541364840,
        1541364480,
        1541364120,
        1541363760,
        1541363400,
        1541363040,
        1541362680,
        1541362320,
        1541361960,
        1541361600,
        1541361240,
        1541360880,
        1541360520,
        1541360160,
        1541359800,
        1541359440,
        1541359080,
        1541358720,
        1541358360,
        1541358000,
        1541357640,
        1541357280,
        1541356920,
        1541356560,
        1541356200,
        1541356020,
        1541355840,
        1541355480,
        1541355120,
        1541354760,
        1541354400,
        1541354040,
        1541353680,
        1541353320,
        1541352960,
        1541352600,
        1541352240,
        1541351880,
        1541351520,
        1541351160,
        1541350800,
        1541350440,
        1541350080,
        1541349720,
        1541349360,
        1541349000,
        1541348640,
        1541348280,
        1541347920,
        1541347560,
        1541347200,
        1541346840,
        1541346480,
        1541346120,
        1541345760,
        1541345400,
        1541345040,
        1541344680,
        1541344320,
        1541343960,
        1541343600,
        1541343240,
        1541342880,
        1541342520,
        1541342160,
        1541341800,
        1541341440,
        1541341080,
        1541340720,
        1541340360,
        1541340000,
        1541339640,
        1541339280,
        1541338920,
        1541338560,
        1541338200,
        1541337840,
        1541337480,
        1541337120,
        1541336760,
        1541336400,
        1541336040,
        1541335680,
        1541335320,
        1541334960,
        1541334600,
        1541334240,
        1541333880,
        1541333520,
        1541333160,
        1541332800,
        1541332440,
        1541332080,
        1541331720,
        1541331360,
        1541331000,
        1541330640,
        1541330280,
        1541329920,
        1541329560,
        1541329200,
        1541329080,
        1541328840,
        1541328480,
        1541328120,
        1541327760,
        1541327400,
        1541327040,
        1541326680,
        1541326320,
        1541325960,
        1541325600,
        1541325240,
        1541325060
    ]
  },
  "3m": {
    "c": [
        6432.18,
        6467.05,
        6376.32,
        6394.66,
        6381.3,
        6342.61,
        6309.11,
        6313.91,
        6470.74,
        6470.17,
        6457.21,
        6462.77,
        6476.25,
        6470.22,
        6483.23,
        6509.87,
        6490.56,
        6469.28,
        6488.72,
        6574.52,
        6583.05,
        6612.36,
        6277.73,
        6267.27,
        6250.85,
        6209.47,
        6581.07,
        6631.79,
        6650.07,
        6601.15,
        6589.94,
        6632.87,
        6579.79,
        6492.26,
        6525.47,
        6594.98,
        6623.71,
        6603.75,
        6635.38,
        6686.13,
        6462.6,
        6437.74,
        6583.53,
        6702.7,
        6716.6,
        6762.06,
        6505.9,
        6398.8,
        6346.44,
        6261.48,
        6502.44,
        6522.08,
        6486.01,
        6492,
        6337.11,
        6295.54,
        6324.43,
        6249.07,
        6200.16,
        6411.78,
        6515.42,
        6705.03,
        7369.86,
        7270.05,
        7301.26,
        7203.46,
        7026.96,
        6998.76,
        7052,
        7091.38,
        6915.73,
        6720.6,
        6749.56,
        6708.96,
        6538.95,
        6366.13,
        6491.11,
        6269.9,
        6502.18,
        6405.71,
        6591.16,
        6323.81,
        6274.22,
        6199.6,
        6263.2,
        6091.14,
        6091.14,
        6153.41,
        6543.24,
        6285.02,
        6723.21,
        6945.78,
        7042.39
    ],
    "t": [
        1541376000,
        1541289600,
        1541203200,
        1541116800,
        1541030400,
        1540944000,
        1540857600,
        1540771200,
        1540684800,
        1540598400,
        1540512000,
        1540425600,
        1540339200,
        1540252800,
        1540166400,
        1540080000,
        1539993600,
        1539907200,
        1539820800,
        1539734400,
        1539648000,
        1539561600,
        1539475200,
        1539388800,
        1539302400,
        1539216000,
        1539129600,
        1539043200,
        1538956800,
        1538870400,
        1538784000,
        1538697600,
        1538611200,
        1538524800,
        1538438400,
        1538352000,
        1538265600,
        1538179200,
        1538092800,
        1538006400,
        1537920000,
        1537833600,
        1537747200,
        1537660800,
        1537574400,
        1537488000,
        1537401600,
        1537315200,
        1537228800,
        1537142400,
        1537056000,
        1536969600,
        1536883200,
        1536796800,
        1536710400,
        1536624000,
        1536537600,
        1536451200,
        1536364800,
        1536278400,
        1536192000,
        1536105600,
        1536019200,
        1535932800,
        1535846400,
        1535760000,
        1535673600,
        1535587200,
        1535500800,
        1535414400,
        1535328000,
        1535241600,
        1535155200,
        1535068800,
        1534982400,
        1534896000,
        1534809600,
        1534723200,
        1534636800,
        1534550400,
        1534464000,
        1534377600,
        1534291200,
        1534204800,
        1534118400,
        1534032000,
        1533945600,
        1533859200,
        1533772800,
        1533686400,
        1533600000,
        1533513600,
        1533427200
    ]
  },
  "1y": {
    "c": [
        6432.18,
        6376.32,
        6381.3,
        6309.11,
        6470.74,
        6457.21,
        6476.25,
        6483.23,
        6490.56,
        6488.72,
        6583.05,
        6277.73,
        6250.85,
        6581.07,
        6650.07,
        6589.94,
        6579.79,
        6525.47,
        6623.71,
        6635.38,
        6462.6,
        6583.53,
        6716.6,
        6505.9,
        6346.44,
        6502.44,
        6486.01,
        6337.11,
        6324.43,
        6200.16,
        6515.42,
        7369.86,
        7301.26,
        7026.96,
        7052,
        6915.73,
        6749.56,
        6538.95,
        6491.11,
        6502.18,
        6591.16,
        6274.22,
        6263.2,
        6091.14,
        6543.24,
        6723.21,
        7042.39,
        7417.6,
        7610.9,
        8176.06,
        8230.87,
        7937.25,
        8395.82,
        7398.64,
        7333.93,
        7383.39,
        6740.55,
        6268.75,
        6253.6,
        6306.85,
        6707.38,
        6602.02,
        6590.06,
        6615.66,
        6385.38,
        5871.28,
        6088.39,
        6157.78,
        6051.47,
        6761.27,
        6714.82,
        6503.1,
        6643.26,
        6556.94,
        6773.72,
        7627.52,
        7661.79,
        7503.2,
        7643.26,
        7502.15,
        7474.75,
        7362.23,
        7475.36,
        7505.77,
        8419.65,
        8249.24,
        8071.04,
        8480.16,
        8709.46,
        8421,
        9321.16,
        9377.81,
        9845.9,
        9745.04,
        9077.28,
        9407.04,
        8938.47,
        8873.62,
        8968.25,
        8935.72,
        8301.82,
        7921.63,
        8376.73,
        7899.11,
        6977.13,
        6789.53,
        6917.2,
        6790.45,
        7434.3,
        6835.84,
        6853.76,
        7959.78,
        8152.2,
        8548.06,
        8724.98,
        8920.71,
        8215.4,
        8283.23,
        8217.7,
        9142.15,
        8797.27,
        9316.72,
        10735.45,
        11504.42,
        11043.12,
        10334.44,
        10326.5,
        9705.73,
        9847.96,
        11256.43,
        10417.23,
        10188.73,
        9485.64,
        8911.27,
        8569.29,
        8260.69,
        7701.25,
        8218.05,
        8870.82,
        10226.86,
        11233.95,
        11459.71,
        11175.87,
        10858.23,
        11549.93,
        11521.76,
        11162.7,
        13631.98,
        14243.12,
        13308.06,
        14468.5,
        16228.16,
        16954.78,
        15156.62,
        13444.88,
        12531.52,
        14398.7,
        15756.56,
        13789.95,
        13664.97,
        16461.97,
        18972.32,
        19345.49,
        16467.91,
        17083.9,
        15059.6,
        16047.61,
        13749.57,
        11623.91,
        10912.73,
        9946.76,
        9906.04,
        9318.42,
        8200.8,
        8234.55,
        8244.69,
        7780.91,
        7853.68,
        6597.06,
        5878.13,
        6565.8,
        7444.36,
        6959.23,
        7389.55
    ],
    "t": [
        1541376000,
        1541203200,
        1541030400,
        1540857600,
        1540684800,
        1540512000,
        1540339200,
        1540166400,
        1539993600,
        1539820800,
        1539648000,
        1539475200,
        1539302400,
        1539129600,
        1538956800,
        1538784000,
        1538611200,
        1538438400,
        1538265600,
        1538092800,
        1537920000,
        1537747200,
        1537574400,
        1537401600,
        1537228800,
        1537056000,
        1536883200,
        1536710400,
        1536537600,
        1536364800,
        1536192000,
        1536019200,
        1535846400,
        1535673600,
        1535500800,
        1535328000,
        1535155200,
        1534982400,
        1534809600,
        1534636800,
        1534464000,
        1534291200,
        1534118400,
        1533945600,
        1533772800,
        1533600000,
        1533427200,
        1533254400,
        1533081600,
        1532908800,
        1532736000,
        1532563200,
        1532390400,
        1532217600,
        1532044800,
        1531872000,
        1531699200,
        1531526400,
        1531353600,
        1531180800,
        1531008000,
        1530835200,
        1530662400,
        1530489600,
        1530316800,
        1530144000,
        1529971200,
        1529798400,
        1529625600,
        1529452800,
        1529280000,
        1529107200,
        1528934400,
        1528761600,
        1528588800,
        1528416000,
        1528243200,
        1528070400,
        1527897600,
        1527724800,
        1527552000,
        1527379200,
        1527206400,
        1527033600,
        1526860800,
        1526688000,
        1526515200,
        1526342400,
        1526169600,
        1525996800,
        1525824000,
        1525651200,
        1525478400,
        1525305600,
        1525132800,
        1524960000,
        1524787200,
        1524614400,
        1524441600,
        1524268800,
        1524096000,
        1523923200,
        1523750400,
        1523577600,
        1523404800,
        1523232000,
        1523059200,
        1522886400,
        1522713600,
        1522540800,
        1522368000,
        1522195200,
        1522022400,
        1521849600,
        1521676800,
        1521504000,
        1521331200,
        1521158400,
        1520985600,
        1520812800,
        1520640000,
        1520467200,
        1520294400,
        1520121600,
        1519948800,
        1519776000,
        1519603200,
        1519430400,
        1519257600,
        1519084800,
        1518912000,
        1518739200,
        1518566400,
        1518393600,
        1518220800,
        1518048000,
        1517875200,
        1517702400,
        1517529600,
        1517356800,
        1517184000,
        1517011200,
        1516838400,
        1516665600,
        1516492800,
        1516320000,
        1516147200,
        1515974400,
        1515801600,
        1515628800,
        1515456000,
        1515283200,
        1515110400,
        1514937600,
        1514764800,
        1514592000,
        1514419200,
        1514246400,
        1514073600,
        1513900800,
        1513728000,
        1513555200,
        1513382400,
        1513209600,
        1513036800,
        1512864000,
        1512691200,
        1512518400,
        1512345600,
        1512172800,
        1512000000,
        1511827200,
        1511654400,
        1511481600,
        1511308800,
        1511136000,
        1510963200,
        1510790400,
        1510617600,
        1510444800,
        1510272000,
        1510099200,
        1509926400,
        1509840000
    ]
  },
  "3y": {
    "c": [
        6432.18,
        6342.61,
        6457.21,
        6509.87,
        6583.05,
        6209.47,
        6589.94,
        6594.98,
        6462.6,
        6762.06,
        6502.44,
        6295.54,
        6515.42,
        7203.46,
        6915.73,
        6366.13,
        6591.16,
        6091.14,
        6723.21,
        7542.34,
        8230.87,
        7718,
        7383.39,
        6229.83,
        6707.38,
        6509.58,
        5871.28,
        6166.54,
        6714.82,
        6310.43,
        7627.52,
        7719.75,
        7474.75,
        7584.74,
        8249.24,
        8672.9,
        9321.16,
        9699.61,
        9407.04,
        9655.77,
        8301.82,
        8022.51,
        6789.53,
        6815.5,
        6853.76,
        8472.84,
        8920.71,
        8268.41,
        8797.27,
        11440.73,
        10334.44,
        10175.51,
        10417.23,
        8544.69,
        8260.69,
        9251.27,
        11233.95,
        11429.02,
        11521.76,
        13638.63,
        14468.5,
        15180.08,
        12531.52,
        13833.49,
        16461.97,
        19345.49,
        17604.85,
        15059.6,
        11667.13,
        9946.76,
        8754.69,
        8244.69,
        7283.22,
        6565.8,
        7389.55,
        6451.24,
        5887.61,
        6006.65,
        5759.33,
        4824.2,
        4371.94,
        4403.09,
        3892.7,
        3617.27,
        3698.92,
        4217.9,
        4618.71,
        4921.85,
        4345.75,
        4089.7,
        4278.92,
        3871.62,
        3401.91,
        2720.53,
        2806.75,
        2756.61,
        2320.23,
        2362.44,
        2564.86,
        2572.47,
        2577.74,
        2710.37,
        2539.56,
        2712.99,
        2798.78,
        2545.43,
        2278.21,
        2445.28,
        1962,
        1772.55,
        1697.5,
        1516.76,
        1336.28,
        1248.18,
        1215.2,
        1177.33,
        1204.34,
        1141.77,
        1037.91,
        966.3,
        1047.51,
        1253.43,
        1112.39,
        1271.22,
        1189.27,
        1171.91,
        1052.28,
        995.36,
        1055.49,
        1013.02,
        914.55,
        893.75,
        895.21,
        819.63,
        899.78,
        1135.41,
        959.04,
        891.07,
        799.1,
        775.21,
        774,
        754.34,
        742.49,
        740.39,
        728.51,
        711.1,
        714.57,
        702.11,
        698.67,
        674.67,
        630.45,
        640.12,
        640.45,
        610.97,
        613.41,
        606.54,
        597.16,
        607.78,
        605.61,
        610.44,
        571.99,
        570.35,
        587.47,
        572.34,
        587.14,
        590.85,
        513.43,
        654.13,
        655.16,
        670.38,
        661.15,
        662.78,
        661.64,
        644.89,
        620.84,
        753.77,
        700.07,
        580.51,
        567.03,
        516.05,
        446.11,
        442.66,
        456.44,
        460.44,
        445.8,
        454.98,
        457.56,
        434.92,
        424.02,
        418.05,
        419.33,
        412.44,
        415.71,
        411.53,
        415.13,
        415.83,
        399,
        436.21,
        422.72,
        419.98,
        405.5,
        375.32,
        390.65,
        377.76,
        392.76,
        414.58,
        372.26,
        446.19,
        431.2,
        429.95,
        415.37,
        437.59,
        453.98,
        449.83,
        393.38,
        361.8,
        353.74,
        324.7,
        330.21,
        304.71,
        369.81,
        382.7
    ],
    "t": [
        1541376000,
        1540944000,
        1540512000,
        1540080000,
        1539648000,
        1539216000,
        1538784000,
        1538352000,
        1537920000,
        1537488000,
        1537056000,
        1536624000,
        1536192000,
        1535760000,
        1535328000,
        1534896000,
        1534464000,
        1534032000,
        1533600000,
        1533168000,
        1532736000,
        1532304000,
        1531872000,
        1531440000,
        1531008000,
        1530576000,
        1530144000,
        1529712000,
        1529280000,
        1528848000,
        1528416000,
        1527984000,
        1527552000,
        1527120000,
        1526688000,
        1526256000,
        1525824000,
        1525392000,
        1524960000,
        1524528000,
        1524096000,
        1523664000,
        1523232000,
        1522800000,
        1522368000,
        1521936000,
        1521504000,
        1521072000,
        1520640000,
        1520208000,
        1519776000,
        1519344000,
        1518912000,
        1518480000,
        1518048000,
        1517616000,
        1517184000,
        1516752000,
        1516320000,
        1515888000,
        1515456000,
        1515024000,
        1514592000,
        1514160000,
        1513728000,
        1513382400,
        1513296000,
        1512864000,
        1512432000,
        1512000000,
        1511568000,
        1511136000,
        1510704000,
        1510272000,
        1509840000,
        1509408000,
        1508976000,
        1508544000,
        1508112000,
        1507680000,
        1507248000,
        1506816000,
        1506384000,
        1505952000,
        1505520000,
        1505088000,
        1504656000,
        1504224000,
        1503792000,
        1503360000,
        1502928000,
        1502496000,
        1502064000,
        1501632000,
        1501200000,
        1500768000,
        1500336000,
        1499904000,
        1499472000,
        1499040000,
        1498608000,
        1498176000,
        1497744000,
        1497312000,
        1496880000,
        1496448000,
        1496016000,
        1495584000,
        1495152000,
        1494720000,
        1494288000,
        1493856000,
        1493424000,
        1492992000,
        1492560000,
        1492128000,
        1491696000,
        1491264000,
        1490832000,
        1490400000,
        1489968000,
        1489536000,
        1489104000,
        1488672000,
        1488240000,
        1487808000,
        1487376000,
        1486944000,
        1486512000,
        1486080000,
        1485648000,
        1485216000,
        1484784000,
        1484352000,
        1483920000,
        1483488000,
        1483056000,
        1482624000,
        1482192000,
        1481760000,
        1481328000,
        1480896000,
        1480464000,
        1480032000,
        1479600000,
        1479168000,
        1478736000,
        1478304000,
        1477872000,
        1477440000,
        1477008000,
        1476576000,
        1476144000,
        1475712000,
        1475280000,
        1474848000,
        1474416000,
        1473984000,
        1473552000,
        1473120000,
        1472688000,
        1472256000,
        1471824000,
        1471392000,
        1470960000,
        1470528000,
        1470096000,
        1469664000,
        1469232000,
        1468800000,
        1468368000,
        1467936000,
        1467504000,
        1467072000,
        1466640000,
        1466208000,
        1465776000,
        1465344000,
        1464912000,
        1464480000,
        1464048000,
        1463616000,
        1463184000,
        1462752000,
        1462320000,
        1461888000,
        1461456000,
        1461024000,
        1460592000,
        1460160000,
        1459728000,
        1459296000,
        1458864000,
        1458432000,
        1458000000,
        1457568000,
        1457136000,
        1456704000,
        1456272000,
        1455840000,
        1455408000,
        1454976000,
        1454544000,
        1454112000,
        1453680000,
        1453248000,
        1452816000,
        1452384000,
        1451952000,
        1451520000,
        1451088000,
        1450656000,
        1450224000,
        1449792000,
        1449360000,
        1448928000,
        1448496000,
        1448064000,
        1447632000,
        1447200000,
        1446768000,
        1446681600
    ]
  }
}