{
  "c": [
      6432.81,
      6434.57,
      6435.24,
      6433.88,
      6431.5,
      6430.17,
      6430.34,
      6429.65,
      6423.79,
      6438,
      6444.83,
      6436.71,
      6436.39,
      6440.72,
      6443.59,
      6444.16,
      6444.22,
      6445.17,
      6446.93,
      6448.35,
      6449.58,
      6449.14,
      6449.28,
      6448.32,
      6451.01,
      6448.01,
      6449.34,
      6449.7,
      6452.25,
      6454.25,
      6453.46,
      6452.47,
      6449.83,
      6450.61,
      6449.75,
      6447.53,
      6447,
      6447.01,
      6446.12,
      6445.18,
      6444.57,
      6443.67,
      6446.54,
      6445.41,
      6448.35,
      6449.68,
      6444.12,
      6444.07,
      6444.02,
      6443.8,
      6445.97,
      6447.89,
      6446.9,
      6448.41,
      6448.07,
      6445.74,
      6448.01,
      6448.22,
      6442.4,
      6452.06,
      6452.38,
      6452.75,
      6455.89,
      6454.03,
      6452.13,
      6454.36,
      6454.25,
      6452.25,
      6453.66,
      6455.45,
      6454.49,
      6454.65,
      6455,
      6453.18,
      6452.25,
      6451.77,
      6448.95,
      6452.06,
      6453.8,
      6453.82,
      6454.13,
      6458.64,
      6464.28,
      6465.52,
      6468.19,
      6469.56,
      6470.78,
      6472.05,
      6475.56,
      6467.34,
      6465.91,
      6463.73,
      6463.02,
      6463.16,
      6462.31,
      6460.83,
      6464.17,
      6472.88,
      6470.22,
      6463.41,
      6461.38,
      6458.87,
      6458.86,
      6459.07,
      6460.7,
      6454.23,
      6452.06,
      6447.91,
      6447.31,
      6448.36,
      6448.39,
      6448.88,
      6447.9,
      6450.44,
      6453.78,
      6450.59,
      6451.83,
      6454.72,
      6454.12,
      6454.72,
      6455.84,
      6457.17,
      6451.45,
      6454.9,
      6458.5,
      6461.47,
      6457.9,
      6455.62,
      6452.1,
      6454.03,
      6460.72,
      6462.09,
      6462.44,
      6459.78,
      6457.55,
      6465.14,
      6466.68,
      6465.38,
      6466.58,
      6460.1,
      6465.66,
      6464.27,
      6467.58,
      6466.47,
      6468.34,
      6481.24,
      6482.82,
      6477.15,
      6472.61,
      6465.38,
      6469.62,
      6472.1,
      6482.54,
      6476.98,
      6494.11,
      6480.7,
      6477.51,
      6461.98,
      6457.54,
      6448.86,
      6444.98,
      6454.77,
      6455.06,
      6451.16,
      6443.51,
      6444.15,
      6444.75,
      6440.21,
      6440.1,
      6442.53,
      6447.8,
      6448.13,
      6448.98,
      6448.31,
      6449.27,
      6447.71,
      6445.12,
      6436.42,
      6443.1,
      6462.97,
      6433.3,
      6402.41,
      6400.43,
      6401.53,
      6398.14,
      6397.12,
      6394.92,
      6396.1,
      6387.17,
      6390.81,
      6389.59,
      6388.76,
      6388.96,
      6388.45,
      6386.29,
      6382.37,
      6384.45,
      6389.04,
      6394.84,
      6394.08,
      6395.55,
      6388.66,
      6388.8,
      6390.65,
      6386.51,
      6387.6,
      6390.96,
      6390.47,
      6386.86,
      6387.39,
      6389.57,
      6392.4,
      6388.48,
      6390.41,
      6389.92,
      6390.8,
      6391.26,
      6388.15,
      6380.48,
      6382.29,
      6385.86,
      6386.19,
      6388.05,
      6387.58,
      6386.78,
      6387.09,
      6389.74,
      6388.55,
      6384.12,
      6385.06,
      6379.62,
      6381.63,
      6381.54,
      6381.74,
      6382.01,
      6382.36,
      6381.87,
      6383.19,
      6383.2,
      6381.09,
      6380.75,
      6381.31,
      6379.88
  ],
  "t": [
      1541411280,
      1541410920,
      1541410560,
      1541410200,
      1541409840,
      1541409480,
      1541409120,
      1541408760,
      1541408400,
      1541408040,
      1541407680,
      1541407320,
      1541406960,
      1541406600,
      1541406240,
      1541405880,
      1541405520,
      1541405160,
      1541404800,
      1541404440,
      1541404080,
      1541403720,
      1541403360,
      1541403000,
      1541402640,
      1541402280,
      1541401920,
      1541401560,
      1541401200,
      1541400840,
      1541400480,
      1541400120,
      1541399760,
      1541399400,
      1541399040,
      1541398680,
      1541398320,
      1541397960,
      1541397600,
      1541397240,
      1541396880,
      1541396520,
      1541396160,
      1541395800,
      1541395440,
      1541395080,
      1541394720,
      1541394360,
      1541394000,
      1541393640,
      1541393280,
      1541392920,
      1541392560,
      1541392200,
      1541391840,
      1541391480,
      1541391120,
      1541390760,
      1541390400,
      1541390040,
      1541389680,
      1541389320,
      1541388960,
      1541388600,
      1541388240,
      1541387880,
      1541387520,
      1541387160,
      1541386800,
      1541386440,
      1541386080,
      1541385720,
      1541385360,
      1541385000,
      1541384640,
      1541384280,
      1541383920,
      1541383560,
      1541383200,
      1541382840,
      1541382480,
      1541382120,
      1541381760,
      1541381400,
      1541381040,
      1541380680,
      1541380320,
      1541379960,
      1541379600,
      1541379240,
      1541378880,
      1541378520,
      1541378160,
      1541377800,
      1541377440,
      1541377080,
      1541376720,
      1541376360,
      1541376000,
      1541375640,
      1541375280,
      1541374920,
      1541374560,
      1541374200,
      1541373840,
      1541373480,
      1541373120,
      1541372760,
      1541372400,
      1541372040,
      1541371680,
      1541371320,
      1541370960,
      1541370600,
      1541370240,
      1541369880,
      1541369520,
      1541369160,
      1541368800,
      1541368440,
      1541368080,
      1541367720,
      1541367360,
      1541367000,
      1541366640,
      1541366280,
      1541365920,
      1541365560,
      1541365200,
      1541364840,
      1541364480,
      1541364120,
      1541363760,
      1541363400,
      1541363040,
      1541362680,
      1541362320,
      1541361960,
      1541361600,
      1541361240,
      1541360880,
      1541360520,
      1541360160,
      1541359800,
      1541359440,
      1541359080,
      1541358720,
      1541358360,
      1541358000,
      1541357640,
      1541357280,
      1541356920,
      1541356560,
      1541356200,
      1541356020,
      1541355840,
      1541355480,
      1541355120,
      1541354760,
      1541354400,
      1541354040,
      1541353680,
      1541353320,
      1541352960,
      1541352600,
      1541352240,
      1541351880,
      1541351520,
      1541351160,
      1541350800,
      1541350440,
      1541350080,
      1541349720,
      1541349360,
      1541349000,
      1541348640,
      1541348280,
      1541347920,
      1541347560,
      1541347200,
      1541346840,
      1541346480,
      1541346120,
      1541345760,
      1541345400,
      1541345040,
      1541344680,
      1541344320,
      1541343960,
      1541343600,
      1541343240,
      1541342880,
      1541342520,
      1541342160,
      1541341800,
      1541341440,
      1541341080,
      1541340720,
      1541340360,
      1541340000,
      1541339640,
      1541339280,
      1541338920,
      1541338560,
      1541338200,
      1541337840,
      1541337480,
      1541337120,
      1541336760,
      1541336400,
      1541336040,
      1541335680,
      1541335320,
      1541334960,
      1541334600,
      1541334240,
      1541333880,
      1541333520,
      1541333160,
      1541332800,
      1541332440,
      1541332080,
      1541331720,
      1541331360,
      1541331000,
      1541330640,
      1541330280,
      1541329920,
      1541329560,
      1541329200,
      1541329080,
      1541328840,
      1541328480,
      1541328120,
      1541327760,
      1541327400,
      1541327040,
      1541326680,
      1541326320,
      1541325960,
      1541325600,
      1541325240,
      1541325060
  ]
}