<svg xmlns="http://www.w3.org/2000/svg" width="136" height="80" viewBox="0 0 136 80">
    <g fill="none" fill-rule="evenodd">
        <circle cx="97.5" cy="33.5" r="2" stroke="#909090"/>
        <g fill="#909090" stroke="#979797" transform="rotate(45 3.722 43.006)">
            <rect width="4" height="1" x=".5" y="2.5" rx=".5"/>
            <rect width="1" height="4" x="2.5" y=".5" rx=".5"/>
        </g>
        <circle cx="2.5" cy="26.5" r="2" stroke="#909090"/>
        <circle cx="115.5" cy="46.5" r="2" stroke="#909090"/>
        <g fill="#909090" stroke="#979797" transform="translate(17 34)">
            <rect width="4" height="1" x=".5" y="2.5" rx=".5"/>
            <rect width="1" height="4" x="2.5" y=".5" rx=".5"/>
        </g>
        <g fill="#909090" stroke="#979797" transform="rotate(45 42.272 159.974)">
            <rect width="4" height="1" x=".5" y="2.5" rx=".5"/>
            <rect width="1" height="4" x="2.5" y=".5" rx=".5"/>
        </g>
        <path fill="#FFF" d="M80.369 56.456c0 13.106-10.555 16.145-23.586 16.145-13.02 0-23.585-3.039-23.585-16.145 0-6.315 2.456-13.821 6.471-19.908l11.482-20.712h11.235l11.28 20.302c.109.194.224.382.345.568 3.956 6.057 6.358 13.491 6.358 19.75"/>
        <path fill="#FFB43E" d="M76.423 56.456c0 6.325-2.378 12.173-19.64 12.173s-19.64-5.848-19.64-12.173c0-5.49 2.23-12.273 5.81-17.714l.09-.129 10.426-18.805 2.022-3.972 2.508-.13 1.873 3.54c.484 1.08.292.735.484 1.08l9.862 17.75.514.847c3.51 5.386 5.69 12.103 5.69 17.533"/>
        <path fill="#676767" d="M63.687 53.68c0 1.577-.584 2.846-1.753 3.822-.942.788-2.124 1.256-3.557 1.403v2.365h-3.2v-2.512c-1.912-.4-3.677-1.363-5.297-2.873l2.31-2.847c1.872 1.644 3.611 2.473 5.204 2.473.717 0 1.275-.147 1.673-.468.411-.307.61-.722.61-1.243a1.48 1.48 0 0 0-.637-1.256c-.438-.307-1.287-.615-2.562-.935-2.031-.481-3.505-1.11-4.447-1.898-.93-.775-1.408-1.99-1.408-3.648 0-1.657.598-2.94 1.78-3.849.783-.601 1.712-1.002 2.774-1.202v-2.34h3.2v2.313c.65.094 1.3.254 1.951.481 1.155.401 2.178.976 3.04 1.697l-1.965 2.86c-1.513-1.15-3.08-1.724-4.686-1.724-.637 0-1.155.147-1.527.455a1.54 1.54 0 0 0-.557 1.229c0 .507.225.922.677 1.216.465.307 1.513.655 3.16 1.069 1.66.4 2.933 1.015 3.85 1.844.915.815 1.367 2.004 1.367 3.568"/>
        <path fill="#FFF" d="M52.268 30.267L47.937 38.2c-.277.507-.9.69-1.404.41a1.044 1.044 0 0 1-.408-1.413l4.33-7.932c.273-.5.908-.686 1.404-.411.505.279.681.914.409 1.413M52.388 27.895c-.501-.277-.684-.91-.409-1.413l.65-1.19a1.03 1.03 0 0 1 1.404-.411c.5.277.683.91.408 1.413l-.65 1.19a1.03 1.03 0 0 1-1.403.41"/>
        <path fill="#676767" d="M106.707 73.655H29.242a1.16 1.16 0 0 1-1.155-1.163 1.16 1.16 0 0 1 1.155-1.163h77.465c.637 0 1.155.521 1.155 1.163a1.16 1.16 0 0 1-1.155 1.163"/>
        <path fill="#676767" d="M51.829 16.999L40.632 37.191c-3.932 5.96-6.279 13.162-6.279 19.265 0 10.36 6.918 14.982 22.43 14.982 15.513 0 22.43-4.621 22.43-14.982 0-6.053-2.305-13.197-6.167-19.111-.136-.209-.266-.42-.387-.638l-10.95-19.708h-9.88zm4.954 56.765c-10.62 0-24.74-1.794-24.74-17.308 0-6.53 2.48-14.195 6.639-20.514l11.79-21.269h12.592L74.675 35.57c.094.17.196.335.302.498 4.1 6.278 6.547 13.9 6.547 20.388 0 15.514-14.12 17.308-24.74 17.308z"/>
        <path fill="#FFB43E" d="M67.191 7.345H45.346c-1.286 0-1.89 1.6-.93 2.46l6.735 6.031h11.086l5.952-6.096c.87-.89.243-2.395-.998-2.395"/>
        <path fill="#676767" d="M51.59 14.673h10.162l5.613-5.748a.228.228 0 0 0 .05-.266.226.226 0 0 0-.223-.15H45.346c-.042 0-.168 0-.228.158-.06.157.035.241.066.27l6.406 5.736zM62.721 17h-12.01l-7.063-6.325a2.564 2.564 0 0 1-.69-2.835 2.536 2.536 0 0 1 2.388-1.657h21.846c1.032 0 1.956.619 2.355 1.577s.19 2.056-.534 2.797l-6.292 6.443z"/>
        <path fill="#676767" d="M77.89 29.622a1.159 1.159 0 0 1-1.127-.905c-.026-.117-2.74-11.718-9.967-11.718H46.928a1.16 1.16 0 0 1-1.156-1.163 1.16 1.16 0 0 1 1.156-1.163h19.868c9.07 0 12.097 12.976 12.221 13.528a1.163 1.163 0 0 1-1.128 1.421"/>
        <path fill="#676767" d="M79.936 22.507c-.33 0-.66-.142-.888-.418-2.541-3.07-7.352-5.068-12.257-5.09a1.158 1.158 0 0 1-1.15-1.168c.002-.642.547-1.15 1.16-1.158 5.558.025 11.062 2.35 14.022 5.927a1.168 1.168 0 0 1-.148 1.638c-.215.18-.478.27-.739.27"/>
        <path fill="#FFF" d="M95.162 65.22h-9.327a2.505 2.505 0 0 0-2.497 2.513v2.101a2.505 2.505 0 0 0 2.497 2.514h9.327a2.505 2.505 0 0 0 2.497-2.514v-2.101a2.505 2.505 0 0 0-2.497-2.513"/>
        <path fill="#676767" d="M85.835 66.383c-.74 0-1.341.605-1.341 1.35v2.101c0 .745.602 1.35 1.341 1.35h9.327c.74 0 1.342-.605 1.342-1.35v-2.101c0-.745-.602-1.35-1.342-1.35h-9.327zm9.327 7.127h-9.327c-2.014 0-3.652-1.649-3.652-3.676v-2.101c0-2.027 1.638-3.676 3.652-3.676h9.327c2.014 0 3.652 1.649 3.652 3.676v2.101c0 2.027-1.638 3.676-3.652 3.676z"/>
        <path fill="#FFB43E" d="M95.162 58.092h-9.327a2.505 2.505 0 0 0-2.497 2.513v2.101a2.505 2.505 0 0 0 2.497 2.514h9.327a2.505 2.505 0 0 0 2.497-2.514v-2.1a2.505 2.505 0 0 0-2.497-2.514"/>
        <path fill="#676767" d="M85.835 59.255c-.74 0-1.341.606-1.341 1.35v2.102c0 .744.602 1.35 1.341 1.35h9.327c.74 0 1.342-.606 1.342-1.35v-2.102c0-.744-.602-1.35-1.342-1.35h-9.327zm9.327 7.128h-9.327c-2.014 0-3.652-1.65-3.652-3.676v-2.102c0-2.027 1.638-3.676 3.652-3.676h9.327c2.014 0 3.652 1.65 3.652 3.676v2.102c0 2.027-1.638 3.676-3.652 3.676z"/>
        <path fill="#FFF" d="M95.162 50.964h-9.327a2.505 2.505 0 0 0-2.497 2.514v2.1a2.505 2.505 0 0 0 2.497 2.514h9.327a2.505 2.505 0 0 0 2.497-2.513v-2.101a2.505 2.505 0 0 0-2.497-2.514"/>
        <path fill="#676767" d="M85.835 52.128c-.74 0-1.341.606-1.341 1.35v2.101c0 .745.602 1.35 1.341 1.35h9.327c.74 0 1.342-.605 1.342-1.35v-2.101c0-.744-.602-1.35-1.342-1.35h-9.327zm9.327 7.127h-9.327c-2.014 0-3.652-1.649-3.652-3.676v-2.101c0-2.027 1.638-3.676 3.652-3.676h9.327c2.014 0 3.652 1.649 3.652 3.676v2.101c0 2.027-1.638 3.676-3.652 3.676z"/>
        <path fill="#FFB43E" d="M84.6 65.22h-9.327a2.505 2.505 0 0 0-2.497 2.513v2.101a2.506 2.506 0 0 0 2.497 2.514H84.6a2.505 2.505 0 0 0 2.496-2.514v-2.101A2.505 2.505 0 0 0 84.6 65.22"/>
        <path fill="#676767" d="M75.273 66.383c-.74 0-1.342.605-1.342 1.35v2.101c0 .745.602 1.35 1.342 1.35H84.6c.74 0 1.341-.605 1.341-1.35v-2.101c0-.745-.602-1.35-1.341-1.35h-9.327zM84.6 73.51h-9.327c-2.014 0-3.653-1.649-3.653-3.676v-2.101c0-2.027 1.639-3.676 3.653-3.676H84.6c2.013 0 3.652 1.649 3.652 3.676v2.101c0 2.027-1.639 3.676-3.652 3.676z"/>
        <path fill="#FFF" d="M84.6 58.092h-9.327a2.505 2.505 0 0 0-2.497 2.513v2.101a2.506 2.506 0 0 0 2.497 2.514H84.6a2.505 2.505 0 0 0 2.496-2.514v-2.1a2.505 2.505 0 0 0-2.496-2.514"/>
        <path fill="#676767" d="M75.273 59.255c-.74 0-1.342.606-1.342 1.35v2.102c0 .744.602 1.35 1.342 1.35H84.6c.74 0 1.341-.606 1.341-1.35v-2.102c0-.744-.602-1.35-1.341-1.35h-9.327zm9.327 7.128h-9.327c-2.014 0-3.653-1.65-3.653-3.676v-2.102c0-2.027 1.639-3.676 3.653-3.676H84.6c2.013 0 3.652 1.65 3.652 3.676v2.102c0 2.027-1.639 3.676-3.652 3.676z"/>
        <path fill="#FFB43E" d="M84.6 50.964h-9.327a2.505 2.505 0 0 0-2.497 2.514v2.1a2.506 2.506 0 0 0 2.497 2.514H84.6a2.505 2.505 0 0 0 2.496-2.513v-2.101a2.505 2.505 0 0 0-2.496-2.514"/>
        <path fill="#676767" d="M75.273 52.128c-.74 0-1.342.606-1.342 1.35v2.101c0 .745.602 1.35 1.342 1.35H84.6c.74 0 1.341-.605 1.341-1.35v-2.101c0-.744-.602-1.35-1.341-1.35h-9.327zm9.327 7.127h-9.327c-2.014 0-3.653-1.649-3.653-3.676v-2.101c0-2.027 1.639-3.676 3.653-3.676H84.6c2.013 0 3.652 1.649 3.652 3.676v2.101c0 2.027-1.639 3.676-3.652 3.676z"/>
        <path fill="#FFF" d="M84.6 43.837h-9.327a2.505 2.505 0 0 0-2.497 2.513v2.101a2.506 2.506 0 0 0 2.497 2.514H84.6a2.505 2.505 0 0 0 2.496-2.514V46.35a2.505 2.505 0 0 0-2.496-2.513"/>
        <path fill="#676767" d="M75.273 45c-.74 0-1.342.606-1.342 1.35v2.101c0 .745.602 1.35 1.342 1.35H84.6c.74 0 1.341-.605 1.341-1.35v-2.1c0-.745-.602-1.351-1.341-1.351h-9.327zm9.327 7.128h-9.327c-2.014 0-3.653-1.65-3.653-3.677v-2.1c0-2.028 1.639-3.677 3.653-3.677H84.6c2.013 0 3.652 1.649 3.652 3.676v2.101c0 2.027-1.639 3.677-3.652 3.677z"/>
        <path fill="#FFB43E" d="M84.6 36.71h-9.327a2.506 2.506 0 0 0-2.497 2.513v2.1a2.506 2.506 0 0 0 2.497 2.514H84.6a2.505 2.505 0 0 0 2.496-2.514v-2.1a2.505 2.505 0 0 0-2.496-2.514"/>
        <path fill="#676767" d="M75.273 37.872c-.74 0-1.342.606-1.342 1.35v2.102c0 .744.602 1.35 1.342 1.35H84.6c.74 0 1.341-.606 1.341-1.35v-2.102c0-.744-.602-1.35-1.341-1.35h-9.327zM84.6 45h-9.327c-2.014 0-3.653-1.65-3.653-3.676v-2.102c0-2.027 1.639-3.676 3.653-3.676H84.6c2.013 0 3.652 1.65 3.652 3.676v2.102C88.252 43.35 86.613 45 84.6 45z"/>
    </g>
</svg>
